…
## Look at Diagnostics

``` r
modelr::add_residuals(nyc_airbnb, fit)
```

    ## # A tibble: 40,492 × 6
    ##    price stars borough neighborhood room_type        resid
    ##    <dbl> <dbl> <chr>   <chr>        <chr>            <dbl>
    ##  1    99   5   Bronx   City Island  Private room     45.0 
    ##  2   200  NA   Bronx   City Island  Private room     NA   
    ##  3   300  NA   Bronx   City Island  Entire home/apt  NA   
    ##  4   125   5   Bronx   City Island  Entire home/apt -33.9 
    ##  5    69   5   Bronx   City Island  Private room     15.0 
    ##  6   125   5   Bronx   City Island  Entire home/apt -33.9 
    ##  7    85   5   Bronx   City Island  Entire home/apt -73.9 
    ##  8    39   4.5 Bronx   Allerton     Private room     -4.09
    ##  9    95   5   Bronx   Allerton     Entire home/apt -63.9 
    ## 10   125   4.5 Bronx   Allerton     Entire home/apt -23.0 
    ## # ℹ 40,482 more rows

``` r
modelr::add_predictions(nyc_airbnb, fit)
```

    ## # A tibble: 40,492 × 6
    ##    price stars borough neighborhood room_type        pred
    ##    <dbl> <dbl> <chr>   <chr>        <chr>           <dbl>
    ##  1    99   5   Bronx   City Island  Private room     54.0
    ##  2   200  NA   Bronx   City Island  Private room     NA  
    ##  3   300  NA   Bronx   City Island  Entire home/apt  NA  
    ##  4   125   5   Bronx   City Island  Entire home/apt 159. 
    ##  5    69   5   Bronx   City Island  Private room     54.0
    ##  6   125   5   Bronx   City Island  Entire home/apt 159. 
    ##  7    85   5   Bronx   City Island  Entire home/apt 159. 
    ##  8    39   4.5 Bronx   Allerton     Private room     43.1
    ##  9    95   5   Bronx   Allerton     Entire home/apt 159. 
    ## 10   125   4.5 Bronx   Allerton     Entire home/apt 148. 
    ## # ℹ 40,482 more rows
…
